"('lw', 'bltz')","8.313331090242613e+32"
"('sll', 'addu')","1.7523795426680323e+56"
"('addu', 'sw')","6.873425200076799e+64"
"('move', 'sb')","9.455494272982016e+25"
"('bgtz', 'nop')","8.761897713340645e+55"
"('addiu', 'jr')","1.0564455076920033e+68"
"('lw', 'bgez')","8.379837739191486e+37"
"('lw', 'b')","3.0323788939167563e+60"
"('lhu', 'nop')","1.7289122357180917e+21"
"('lw', 'lb')","5.346888498661383e+61"
"('nop', 'addu')","1.1884536003407294e+61"
"('move', 'lw')","3.985421829682127e+69"
"('lw', 'lhu')","7.427753596329932e+19"
"('sh', 'lbu')","17136.0"
"('bnez', 'nop')","2.0675676272425868e+65"
"('beqz', 'addiu')","5.067638905672734e+69"
"('move', 'addiu')","3.919272497655604e+64"
"('sra', 'sw')","1.0"
"('subu', 'sw')","1.0215421243690123e+37"
"('or', 'lw')","3.13598221161981e+20"
"('nop', 'sra')","6.2584983666715454e+53"
"('jalr', 'nop')","8.86836814346814e+69"
"('addiu', 'beqz')","3.800729179254551e+69"
"('lw', 'slti')","1.4502746711080295e+43"
"('sb', 'addiu')","9.387747550007318e+53"
"('lb', 'nop')","5.346888547835299e+61"
"('addu', 'lb')","4.917391573813357e+53"
"('ori', 'slt')","2.9005493417172593e+43"
"('addiu', 'sllv')","1.7523795426680323e+56"
"('andi', 'sb')","1.0215421243690123e+37"
"('beq', 'addiu')","4.223032421393945e+68"
"('nop', 'blez')","3.135982211619811e+20"
"('jalr', 'addiu')","2.1115162106969725e+68"
"('nop', 'sll')","3.8612113176072985e+48"
"('sltu', 'bnez')","9.387747550007905e+53"
"('mflo', 'mfhi')","4.958310086210643e+39"
"('sw', 'bal')","3.1672743160454587e+69"
"('sll', 'sll')","1.0215421243690123e+37"
"('nop', 'addiu')","4.263161012986093e+69"
"('addiu', 'addu')","1.3619691961607255e+70"
"('nop', 'bgtz')","8.761897713340162e+55"
"('slti', 'bnez')","2.062205779913955e+65"
"('lw', 'bnez')","5.346888503131999e+62"
"('nop', 'jr')","8.44606484278789e+68"
"('sra', 'lw')","6.2584983666715454e+53"
"('lhu', 'move')","4.7884787079797464e+35"
"('sllv', 'or')","1.7523795426680323e+56"
"('lw', 'bgtz')","4.83424890313921e+42"
"('sb', 'sb')","495533376.0"
"('lui', 'or')","2.1043359490663483e+26"
"('mfhi', 'sw')","8.0"
"('sh', 'move')","1.4365436123939235e+36"
"('lw', 'beqz')","2.1393742523000464e+62"
"('addiu', 'sb')","2.560977531641996e+57"
"('lw', 'move')","1.4311115795324847e+68"
"('multu', 'mfhi')","1.0215421243690123e+37"
"('lw', 'lui')","2.749370066011683e+65"
"('srl', 'move')","1.7523795426680326e+56"
"('sw', 'sw')","1.7736804901341834e+70"
"('nop', 'jalr')","3.8007292377802114e+69"
"('nop', 'bgez')","264.0"
"('addiu', 'sh')","1.7181335042365242e+64"
"('sb', 'b')","1.0693776997322766e+62"
"('divu', 'break')","12"
"('andi', 'sw')","4.78847870797976e+35"
"('nop', 'lhu')","4.788478707979764e+35"
"('sb', 'lw')","5.948601984333416e+60"
"('addu', 'sb')","5.9409875783633484e+60"
"('addiu', 'lbu')","1.3969862425606129e+51"
"('sw', 'lbu')","1.2516996733343091e+54"
"('sltu', 'lw')","4.7039733174297166e+20"
"('nop', 'move')","1.0571327906856645e+68"
"('addiu', 'move')","2.5084772339731044e+68"
"('ori', 'addu')","2.749370066011683e+65"
"('nop', 'sh')","1.2641583789110657e+38"
"('addiu', 'sw')","6.651965874780436e+69"
"('nop', 'bnez')","1.4953505329279956e+60"
"('lui', 'ori')","3.4367125825146034e+65"
"('b', 'nop')","1.3834784246096297e+65"
"('nop', 'srl')","1.7523795426680326e+56"
"('lw', 'bne')","2.1115162106969725e+68"
"('nop', 'sb')","1.0694282438514437e+62"
"('mflo', 'lw')","4.958310086210643e+39"
"('addu', 'addiu')","6.4403306424848094e+69"
"('andi', 'sh')","5.020081461543497e+39"
"('lbu', 'lw')","5.940988472434543e+60"
"('nop', 'mult')","9.916620172421286e+39"
"('addiu', 'bne')","3.790646896256939e+64"
"('move', 'addu')","3.852937661284122e+40"
"('srl', 'sw')","1.0215421243690123e+37"
"('addiu', 'lw')","7.614864665944684e+69"
"('addu', 'addu')","8.888597640266001e+40"
"('divu', 'mfhi')","8.0"
"('lw', 'srl')","3.357106652663058e+40"
"('lw', 'xor')","1.855824794557886e+66"
"('sll', 'sw')","4.181938071862576e+37"
"('nop', 'sw')","3.391761463210201e+69"
"('lw', 'sll')","2.0620275512611417e+65"
"('srl', 'or')","3.13598221161981e+20"
"('nop', 'multu')","4.958310086210643e+39"
"('sll', 'or')","3.357106652663058e+40"
"('move', 'ori')","2.9005493417172593e+43"
"('xor', 'lw')","1.3746850330058414e+65"
"('nop', 'xor')","1.3746850330058414e+65"
"('sra', 'move')","240.0"
"('lw', 'jr')","2.1115162106969725e+68"
"('sw', 'move')","3.169336314612022e+68"
"('nop', 'and')","7.564395423543444e+26"
"('mult', 'mflo')","9.916620172421286e+39"
"('beq', 'nop')","3.146181004083739e+54"
"('sb', 'move')","4.470355976193961e+52"
"('slti', 'beqz')","1.4502746711080295e+43"
"('jr', 'addiu')","1.0557581053484864e+69"
"('lw', 'lw')","2.0112468566907986e+70"
"('and', 'sw')","7.564395423543444e+26"
"('mflo', 'addu')","4.958310086210643e+39"
"('addu', 'move')","3.378425937115156e+69"
"('nop', 'beqz')","2.533819508295685e+69"
"('addu', 'sltu')","8.888597640266001e+40"
"('nop', 'lui')","1.3619485758851952e+70"
"('multu', 'mflo')","4.958310086210643e+39"
"('mfhi', 'srl')","1.0215421243690123e+37"
"('andi', 'move')","9.885016213656476e+38"
"('sll', 'lw')","3.13598221161981e+20"
"('nop', 'subu')","8.940711952388418e+52"
"('subu', 'move')","8.940711952387922e+52"
"('move', 'or')","2.3519866587148576e+20"
"('sltu', 'beqz')","4.958310086210643e+39"
"('and', 'lw')","7.564395423543444e+26"
"('lw', 'sw')","1.3243701223547816e+67"
"('addiu', 'andi')","5.0103448881707833e+39"
"('sh', 'lw')","1.7181335042365242e+64"
"('sw', 'addiu')","1.341391151110852e+67"
"('mfhi', 'addu')","4.958310086210643e+39"
"('nop', 'ori')","10406201328.0"
"('andi', 'sra')","1.0"
"('nop', 'andi')","1.7523795426680323e+56"
"('lw', 'lbu')","9.455494272982016e+25"
"('sw', 'lw')","6.770637497471397e+69"
"('addu', 'lw')","3.801141584764627e+69"
"('bltz', 'nop')","8.313331090242613e+32"
"('subu', 'lw')","4.968525507454332e+39"
"('or', 'bnez')","2.3519866587148576e+20"
"('sll', 'move')","7.553489968472818e+40"
"('nor', 'and')","7.564395423543444e+26"
"('sltiu', 'bnez')","5.257138628004097e+56"
"('addiu', 'and')","3.378425937115156e+69"
"('sh', 'addiu')","4.2953337605913106e+63"
"('beqz', 'nop')","6.334551326058349e+68"
"('bne', 'nop')","2.1118952753866044e+68"
"('subu', 'addu')","18.0"
"('move', 'bal')","3.378425937115156e+69"
"('nop', 'sltiu')","5.257138628004097e+56"
"('andi', 'lw')","5.006850433568447e+54"
"('sltiu', 'beqz')","2.0"
"('ori', 'sw')","10406201328.0"
"('nop', 'nop')","2.438787455063421e+70"
"('subu', 'addiu')","4.1819380719382196e+37"
"('bnez', 'divu')","20.0"
"('slt', 'beqz')","1.3411067928581882e+53"
"('jr', 'nop')","1.0564455076920033e+68"
"('addu', 'jr')","2"
"('andi', 'nor')","7.839955529049527e+19"
"('bal', 'nop')","7.179155116369706e+69"
"('lbu', 'addiu')","3.2081331119949033e+62"
"('nop', 'slti')","2.062205779964023e+65"
"('nop', 'bne')","6.258498366671713e+53"
"('sw', 'bnez')","5.006798693337236e+54"
"('move', 'move')","5.2824460239714305e+67"
"('nop', 'beq')","4.223032421393945e+68"
"('move', 'sw')","2.1135782089523558e+68"
"('slt', 'bnez')","3.5762847812452244e+53"
"('addu', 'sll')","1.0215421243690123e+37"
"('nop', 'nor')","7.564395423543444e+26"
"('xor', 'move')","1.855824794557886e+66"
"('move', 'sll')","1.7523795735577227e+56"
"('sllv', 'negu')","7.564395418385613e+26"
"('sh', 'b')","5.018964149844968e+39"
"('and', 'addiu')","3.378425937115156e+69"
"('nop', 'lw')","4.9753994797570595e+69"
"('nop', 'b')","7.474435192196302e+55"
"('nop', 'lbu')","3.2082341492965327e+62"
"('sll', 'addiu')","2.0620275530135213e+65"
"('bgez', 'nop')","8.379837739191486e+37"
"('ori', 'move')","2.376394888293948e+61"
"('sltu', 'addu')","8.888597640266001e+40"
"('or', 'sll')","1.7523795426680328e+56"
"('slti', 'xori')","5.006798693337236e+54"
"('lw', 'addiu')","6.440247979695698e+69"
"('nop', 'negu')","12.0"
"('xori', 'andi')","5.006798693337236e+54"
"('ori', 'and')","2.1012239204407412e+26"
"('and', 'lui')","2.1012239204407412e+26"
"('addiu', 'nop')","2.1115162106969725e+68"
"('srl', 'sll')","3.3654705288067836e+40"
"('addiu', 'lhu')","17136.0"
"('lui', 'addiu')","1.3619485758851952e+70"
"('sll', 'subu')","6.2250223206006e+37"
"('negu', 'sw')","7.564395418385613e+26"
"('move', 'lui')","1.0215421243690123e+37"
"('lbu', 'nop')","1.0103731559927257e+58"
"('lw', 'nop')","1.7592620830969697e+70"
"('addiu', 'srl')","8.363876143725152e+37"
"('nop', 'sltu')","9.387747550007954e+53"
"('ori', 'multu')","1.0215421243690123e+37"
"('andi', 'addiu')","1.7523795426680323e+56"
"('xor', 'lui')","6.873425165029207e+64"
"('sw', 'sb')","1.3369144592656155e+21"
"('lw', 'ori')","2.376394888293948e+61"
"('lw', 'sh')","4.2953337605913106e+63"
"('lw', 'andi')","5.174023121101148e+49"
"('blez', 'nop')","3.135982211619811e+20"
"('or', 'sw')","2.1043359490663483e+26"
"('sw', 'b')","1.3823787223735147e+65"
"('addiu', 'beq')","3.146181004083739e+54"
"('addiu', 'jalr')","5.278790526757622e+69"
"('addu', 'lbu')","5.94098722073487e+60"
"('addiu', 'addiu')","4.011951729894972e+69"
"('nor', 'andi')","7.839955529049527e+19"
"('nop', 'bal')","6.334548632090918e+68"
"('nop', 'slt')","4.917391573813358e+53"
"('lw', 'beq')","12.0"
"('ori', 'xor')","6.873425165029207e+64"
"('srl', 'addu')","7.839955529049527e+19"
