"('addiu', 'sll')","6.0"
"('addiu', 'addu')","9.0"
"('nop', 'beqz')","10.0"
"('lw', 'lw')","36.0"
"('nop', 'lbu')","9.0"
"('addiu', 'subu')","8.0"
"('jr', 'addiu')","3"
"('addiu', 'b')","8.0"
"('bnez', 'nop')","9.0"
"('move', 'lw')","8.0"
"('sll', 'sltu')","6.0"
"('b', 'move')","8.0"
"('lui', 'addiu')","9.0"
"('lbu', 'nop')","9.0"
"('sra', 'addiu')","8.0"
"('lw', 'jalr')","4.0"
"('lw', 'jr')","3"
"('addiu', 'lw')","1"
"('subu', 'sra')","8.0"
"('jalr', 'sw')","2.0"
"('nop', 'lw')","28.0"
"('addiu', 'sw')","9.0"
"('addu', 'addiu')","9.0"
"('addu', 'lw')","6.0"
"('sb', 'lw')","2"
"('bnez', 'addu')","6.0"
"('jalr', 'nop')","4.0"
"('sltu', 'bnez')","6.0"
"('jalr', 'addiu')","1.0"
"('nop', 'jalr')","3.0"
"('sw', 'sw')","36.0"
"('nop', 'bnez')","9.0"
"('addiu', 'sb')","2"
"('lw', 'nop')","33.0"
"('beqz', 'nop')","10.0"
"('nop', 'addiu')","6.0"
"('sw', 'lw')","11.0"
"('lw', 'addiu')","10.0"
