"('move', 'b')","14.0"
"('bgez', 'addiu')","76.0"
"('subu', 'sltiu')","1"
"('lui', 'sltu')","12.0"
"('slti', 'addiu')","16.0"
"('lw', 'subu')","2122722.0"
"('lw', 'b')","2.0"
"('bnez', 'lui')","269287.0"
"('sltiu', 'bnez')","1"
"('beqz', 'lui')","2122722.0"
"('sw', 'sw')","8490890.0"
"('bnez', 'nop')","18.0"
"('addiu', 'beq')","150.0"
"('b', 'move')","6.0"
"('move', 'bnez')","346488.0"
"('b', 'lw')","353805.0"
"('mul', 'lui')","4.0"
"('rotr', 'addiu')","384.0"
"('lui', 'move')","353984.0"
"('lw', 'bnez')","264.0"
"('b', 'nop')","12.0"
"('sra', 'srl')","1061361.0"
"('nop', 'lui')","2124044.0"
"('lw', 'jal')","312.0"
"('jal', 'lw')","96.0"
"('addiu', 'lui')","7436519.0"
"('addiu', 'divu')","102.0"
"('and', 'jalr')","2122722.0"
"('mul', 'addiu')","260.0"
"('nop', 'beqz')","1494.0"
"('move', 'move')","840.0"
"('bne', 'sw')","384.0"
"('bne', 'nop')","20.0"
"('bnez', 'mul')","264.0"
"('beqz', 'nop')","102.0"
"('bgtz', 'move')","6.0"
"('nop', 'bne')","14.0"
"('nop', 'subu')","52.0"
"('lw', 'move')","354978.0"
"('addiu', 'mflo')","6.0"
"('beq', 'nop')","18.0"
"('lw', 'lw')","1418209.0"
"('sw', 'addiu')","707590.0"
"('addiu', 'addiu')","3895914.0"
"('jal', 'nop')","3185326.0"
"('addiu', 'j')","1061361.0"
"('addu', 'addiu')","2122722.0"
"('move', 'lw')","4247073.0"
"('jal', 'move')","693144.0"
"('nop', 'divu')","50.0"
"('move', 'beqz')","8.0"
"('addiu', 'nop')","2830013.0"
"('lw', 'jalr')","353787.0"
"('sra', 'beqz')","1061361.0"
"('bnez', 'move')","77522.0"
"('srl', 'lui')","1056.0"
"('move', 'sw')","112.0"
"('bne', 'lui')","1024.0"
"('addiu', 'move')","5032.0"
"('sw', 'jal')","3185415.0"
"('sw', 'slti')","353786.0"
"('move', 'addiu')","360102.0"
"('slti', 'sw')","353786.0"
"('nop', 'addiu')","3185336.0"
"('divu', 'teq')","204.0"
"('bne', 'addiu')","32.0"
"('lui', 'jal')","5720.0"
"('lui', 'lui')","1063098.0"
"('jal', 'addiu')","3193021.0"
"('nop', 'bnez')","346536.0"
"('move', 'bgtz')","6.0"
"('sw', 'lui')","1062862.0"
"('lw', 'addu')","4245444.0"
"('sw', 'b')","2.0"
"('nop', 'nop')","34671327.0"
"('beq', 'lui')","18.0"
"('teq', 'mfhi')","102.0"
"('move', 'sra')","18.0"
"('jal', 'sw')","2478.0"
"('nop', 'move')","2304.0"
"('jr', 'addiu')","3183800.0"
"('addiu', 'b')","353801.0"
"('jr', 'nop')","1061361.0"
"('sltu', 'bnez')","30.0"
"('sw', 'mflo')","96.0"
"('b', 'sw')","64.0"
"('sw', 'bnez')","353786.0"
"('lw', 'beq')","1061381.0"
"('blez', 'lw')","8.0"
"('mflo', 'sw')","32.0"
"('srl', 'addu')","1061361.0"
"('lui', 'lw')","2476741.0"
"('addiu', 'wsbh')","384.0"
"('bne', 'lw')","22.0"
"('mflo', 'b')","64.0"
"('move', 'blez')","16.0"
"('movn', 'lui')","16.0"
"('nop', 'jal')","3185343.0"
"('lui', 'addiu')","10957339.0"
"('wsbh', 'rotr')","384.0"
"('lui', 'jr')","1061361.0"
"('mfhi', 'beqz')","102.0"
"('addiu', 'bne')","1438.0"
"('lw', 'movn')","16.0"
"('addu', 'lw')","2122722.0"
"('bal', 'move')","2122722.0"
"('addiu', 'and')","2122722.0"
"('addu', 'divu')","52.0"
"('addiu', 'jal')","698372.0"
"('lui', 'slti')","16.0"
"('mflo', 'jal')","6.0"
"('beqz', 'move')","1494.0"
"('jalr', 'addiu')","2476509.0"
"('sra', 'sltu')","18.0"
"('nop', 'b')","50.0"
"('lw', 'sw')","353786.0"
"('jalr', 'move')","260.0"
"('b', 'addiu')","6.0"
"('lui', 'sw')","1061894.0"
"('addiu', 'beqz')","1062847.0"
"('nop', 'sra')","18.0"
"('addiu', 'jalr')","260.0"
"('lw', 'bne')","30.0"
"('lw', 'jr')","3183800.0"
"('addiu', 'subu')","1061362.0"
"('nop', 'lw')","354251.0"
"('sw', 'lw')","707700.0"
"('bal', 'nop')","3184083.0"
"('lui', 'b')","6.0"
"('subu', 'move')","2122722.0"
"('subu', 'sra')","1061361.0"
"('nop', 'bgtz')","6.0"
"('sw', 'bal')","2122722.0"
"('addiu', 'bgez')","76.0"
"('bnez', 'sw')","353786.0"
"('addiu', 'lw')","4245884.0"
"('beq', 'move')","82.0"
"('addiu', 'bnez')","308.0"
"('addiu', 'sw')","6368171.0"
"('move', 'jal')","1229.0"
"('addu', 'sra')","1061361.0"
"('nop', 'blez')","16.0"
"('sw', 'move')","534.0"
"('teq', 'lw')","102.0"
"('lw', 'lui')","2122972.0"
"('lw', 'addiu')","1062267.0"
"('nop', 'bgez')","76.0"
"('jal', 'srl')","1056.0"
"('j', 'nop')","1061361.0"
"('beq', 'lw')","1061413.0"
"('subu', 'addu')","52.0"
"('nop', 'bal')","2122722.0"
"('move', 'lui')","777420.0"
